x,y
50,0
150,0
250,0
350,0
450,0
550,0
650,0
750,0
850,0
950,0
1050,0
1150,0
1250,0
1350,0
1450,0
1550,0
1650,0
1750,0
1850,0
1950,0
2050,0
2150,0
2250,0
2350,0
2450,0
2550,0
2650,0
2750,3495
2850,99
50,100
150,101
250,99
350,100
450,100
550,100
650,100
750,100
850,100
950,100
1050,100
1150,100
1250,100
1350,100
1450,100
1550,100
1650,100
1750,100
1850,100
1950,100
2050,100
2150,100
2250,100
2350,100
2450,101
2550,99
2650,100
2750,101
2850,99
50,100
150,101
250,99
350,100
450,101
550,99
650,100
750,100
850,100
950,100
1050,100
1150,100
1250,100
1350,100
1450,100
1550,100
1650,100
1750,100
1850,100
1950,100
2050,100
2150,100
2250,100
2350,100
2450,101
2550,99
2650,100
2750,101
2850,99
50,100
150,101
250,99
350,100
450,101
550,99
650,100
750,101
850,99
950,100
1050,100
1150,100
1250,100
1350,100
1450,100
1550,100
1650,100
1750,100
1850,100
1950,100
2050,100
2150,101
2250,99
2350,100
2450,101
2550,99
2650,100
2750,101
2850,99
50,100
150,101
250,99
350,100
450,101
550,99
650,100
750,101
850,99
950,100
1050,101
1150,99
1250,100
1350,100
1450,100
1550,100
1650,100
1750,100
1850,100
1950,100
2050,100
2150,101
2250,99
2350,100
2450,101
2550,99
2650,100
2750,101
2850,99
50,100
150,101
250,99
350,100
450,101
550,99
650,100
750,101
850,99
950,100
1050,101
1150,99
1250,100
1350,101
1450,99
1550,100
1650,100
1750,100
1850,101
1950,99
2050,100
2150,101
2250,99
2350,100
2450,101
2550,99
2650,100
2750,101
2850,99
50,100
150,101
250,99
350,100
450,101
550,99
650,100
750,101
850,99
950,100
1050,101
1150,99
1250,100
1350,101
1450,99
1550,100
1650,101
1750,99
1850,101
1950,99
2050,100
2150,101
2250,99
2350,100
2450,101
2550,99
2650,100
2750,101
2850,99
